%YAML 1.1
%TAG !u! tag:unity3d.com,2011:
--- !u!221 &22100000
AnimatorOverrideController:
  m_ObjectHideFlags: 0
  m_CorrespondingSourceObject: {fileID: 0}
  m_PrefabInstance: {fileID: 0}
  m_PrefabAsset: {fileID: 0}
  m_Name: Fireball Override
  m_Controller: {fileID: 9100000, guid: 34302bc1268791844b91a68ab7d16bb7, type: 2}
  m_Clips:
  - m_OriginalClip: {fileID: 7400000, guid: 1315bcd7509173f44bc6655b2673dd4d, type: 3}
    m_OverrideClip: {fileID: 7400000, guid: 6225a58c8d4165e42b647612da98e223, type: 3}
